ЛС;Код ИПУ;Вид КУ;Марка;Модель;Заводской номер;Дата установки;Дата поверки;Место установки;Начальные показания;Конечные показания
100101;1;ГВС;БЕТАР                                             ;СГВ-15                                            ;22647354;01/06/2016;04/01/2022;;43;43
100103;1;ГВС;БЕТАР                                             ;СГВ-15                                            ;29411961;10/07/2017;01/05/2023;;20;20
100106;1;ГВС;БАЗ                                               ;СВУ-15                                            ;N 8474 15           ;21/08/2015;13/08/2021;;0;0
100113;1;ГВС;БЕТАР                                             ;СГВ-15                                            ;10023028;03/03/2014;03/01/2020;;39;39
200938;6;ГВС;БЕТАР                                             ;СГВ-15                                            ;27729688;10/11/2016;11/10/2022;туалет;19;19
200938;5;ГВС;БЕТАР                                             ;СГВ-15                                            ;27882917;10/11/2016;11/10/2022;кухня;11;11
200939;2;ГВС;БЕТАР                                             ;СГВ-15                                            ;21443739;25/01/2012;13/02/2020;кухня;66;66
200939;3;ГВС;БЕТАР                                             ;СГВ-15                                            ;25766913;01/03/2017;02/05/2022;туалет;59;59
200940;3;ГВС;БЕТАР                                             ;СГВ-15                                            ;10823579;07/04/2014;12/02/2020;;100;106
