ЛС;ФИО;Город;Улица;Дом;Корпус;Квартира;Комната;ЕЛС;Площадь;Площадь дома;Площадь МОП;Количество человек;Период начисления;Вид платежа;Вид начисления;Единица измерения;Тариф;Норматив;Количество;Начислено;Перерасчет;Оплачено;Остаток на начало
100113;Ахматдинов А. А.;Южноуральск г;Яблочкова ул;21А   ;   ;34;    ;30АМ334898;0;"3119,9";"448,1";1;Ноябрь 2019 г.;Отопление и ГВС;;;0;0;0;0;0;0;"2719,97"
100113;Ахматдинов А. А.;Южноуральск г;Яблочкова ул;21А   ;   ;34;    ;30АМ334898;0;"3119,9";"448,1";1;Ноябрь 2019 г.;Отопление и ГВС;Комп-нт на т/носитель с ПС;куб.м;"20,75";"4,24";"4,24";"87,98";0;0;0
100113;Ахматдинов А. А.;Южноуральск г;Яблочкова ул;21А   ;   ;34;    ;30АМ334898;0;"3119,9";"448,1";1;Ноябрь 2019 г.;Отопление и ГВС;Отопление (Гкал);ГКал;"1321,85";"0,0324";0;0;0;0;0
100113;Ахматдинов А. А.;Южноуральск г;Яблочкова ул;21А   ;   ;34;    ;30АМ334898;0;"3119,9";"448,1";1;Ноябрь 2019 г.;Отопление и ГВС;Компонент на теплоэнергию;ГКал;"1321,85";;"0,29375";"388,29";0;0;0
100113;Ахматдинов А. А.;Южноуральск г;Яблочкова ул;21А   ;   ;34;    ;30АМ334898;0;"3119,9";"448,1";1;Ноябрь 2019 г.;Пени отопление и ГВС;;;0;0;0;0;0;0;"573,49"
200939;Воронкова А. С.;Южноуральск г;Космонавтов ул;21;   ;14;    ;70АМ325657;"48,2";"2156,8";"200,6";6;Ноябрь 2019 г.;Отопление и ГВС;;;0;0;0;0;0;0;"1833,28"
200939;Воронкова А. С.;Южноуральск г;Космонавтов ул;21;   ;14;    ;70АМ325657;"48,2";"2156,8";"200,6";6;Ноябрь 2019 г.;Отопление и ГВС;Компонент на т/носитель с ПС;куб.м;0;"4,24";"1,16667";0;0;0;0
200939;Воронкова А. С.;Южноуральск г;Космонавтов ул;21;   ;14;    ;70АМ325657;"48,2";"2156,8";"200,6";6;Ноябрь 2019 г.;Отопление и ГВС;Отопление (Гкал);ГКал;"1321,85";"0,0324";"0,98516";"1302,23";0;0;0
200939;Воронкова А. С.;Южноуральск г;Космонавтов ул;21;   ;14;    ;70АМ325657;"48,2";"2156,8";"200,6";6;Ноябрь 2019 г.;Отопление и ГВС;Компонент на теплоэнергию;ГКал;"1321,85";;"0,08083";"106,85";0;0;0
200939;Воронкова А. С.;Южноуральск г;Космонавтов ул;21;   ;14;    ;70АМ325657;"48,2";"2156,8";"200,6";6;Ноябрь 2019 г.;Пени отопление и ГВС;;;0;0;0;0;0;0;"29,33"
100106;Даняев Егор Иванович;Южноуральск г;Куйбышева ул;11;   ;70;    ;20АМ107915;"24,1";"6357,4";"557,9";1;Ноябрь 2019 г.;Отопление и ГВС;;;0;0;0;0;0;"1032,16";"1032,16"
100106;Даняев Егор Иванович;Южноуральск г;Куйбышева ул;11;   ;70;    ;20АМ107915;"24,1";"6357,4";"557,9";1;Ноябрь 2019 г.;Отопление и ГВС;Отопление (Гкал);ГКал;"1321,85";"0,0324";"0,78084";"1032,16";0;0;0
100101;Колезнев Сергей Егорович;Южноуральск г;Строителей ул;17;   ;29;    ;60АМ105103;"42,1";"1528,2";111;3;Ноябрь 2019 г.;Отопление и ГВС;;;0;0;0;0;0;"1874,3";"1874,3"
100101;Колезнев Сергей Егорович;Южноуральск г;Строителей ул;17;   ;29;    ;60АМ105103;"42,1";"1528,2";111;3;Ноябрь 2019 г.;Отопление и ГВС;Отопление (Гкал);ГКал;"1321,85";"0,0324";"1,36404";"1803,06";0;0;0
100101;Колезнев Сергей Егорович;Южноуральск г;Строителей ул;17;   ;29;    ;60АМ105103;"42,1";"1528,2";111;3;Ноябрь 2019 г.;Отопление и ГВС;Компонент на теплоэнергию;ГКал;"1321,85";;"0,02005";"26,5";0;0;0
100101;Колезнев Сергей Егорович;Южноуральск г;Строителей ул;17;   ;29;    ;60АМ105103;"42,1";"1528,2";111;3;Ноябрь 2019 г.;Отопление и ГВС;Комп-нт на т/носитель БПС;куб.м;"20,75";"4,24";"0,33333";"6,92";0;0;0
100101;Колезнев Сергей Егорович;Южноуральск г;Строителей ул;17;   ;29;    ;60АМ105103;"42,1";"1528,2";111;3;Ноябрь 2019 г.;Пени отопление и ГВС;;;0;0;0;"0,07";0;0;"-4,19"
100103;Надеев Максим Ильич;Южноуральск г;Павлова ул;39;   ;41;    ;50АМ338111;"11,56";"2580,7";"189,9";1;Ноябрь 2019 г.;Отопление и ГВС;;;0;0;0;0;0;"300,44";"300,44"
100103;Надеев Максим Ильич;Южноуральск г;Павлова ул;39;   ;41;    ;50АМ338111;"11,56";"2580,7";"189,9";1;Ноябрь 2019 г.;Отопление и ГВС;Отопление (Гкал);ГКал;"1321,85";"0,0324";"0,32717";"432,47";0;0;0
100103;Надеев Максим Ильич;Южноуральск г;Павлова ул;39;   ;41;    ;50АМ338111;"11,56";"2580,7";"189,9";1;Ноябрь 2019 г.;Пени отопление и ГВС;;;0;0;0;0;0;0;"1191,61"
200938;НЕСТЕРОВА Л. И.;Южноуральск г;Космонавтов ул;21;   ;13;    ;10АМ330630;"51,4";"2156,8";"200,6";1;Ноябрь 2019 г.;Отопление и ГВС;;;0;0;0;0;0;"1841,03";"1841,03"
200938;НЕСТЕРОВА Л. И.;Южноуральск г;Космонавтов ул;21;   ;13;    ;10АМ330630;"51,4";"2156,8";"200,6";1;Ноябрь 2019 г.;Отопление и ГВС;Компонент на т/носитель с ПС;куб.м;0;"4,24";"0,83333";0;0;0;0
200938;НЕСТЕРОВА Л. И.;Южноуральск г;Космонавтов ул;21;   ;13;    ;10АМ330630;"51,4";"2156,8";"200,6";1;Ноябрь 2019 г.;Отопление и ГВС;Отопление (Гкал);ГКал;"1321,85";"0,0324";"1,05056";"1388,68";0;0;0
200938;НЕСТЕРОВА Л. И.;Южноуральск г;Космонавтов ул;21;   ;13;    ;10АМ330630;"51,4";"2156,8";"200,6";1;Ноябрь 2019 г.;Отопление и ГВС;Компонент на теплоэнергию;ГКал;"1321,85";;"0,05773";"76,31";0;0;0
200938;НЕСТЕРОВА Л. И.;Южноуральск г;Космонавтов ул;21;   ;13;    ;10АМ330630;"51,4";"2156,8";"200,6";1;Ноябрь 2019 г.;Пени отопление и ГВС;;;0;0;0;0;0;0;"-6,89"
200940;Юмаев Антон Альбертович;Южноуральск г;Космонавтов ул;21;   ;15;    ;20АМ330487;"53,9";"2156,8";"200,6";1;Ноябрь 2019 г.;Отопление и ГВС;;;0;0;0;0;0;"2205,32";"2205,32"
200940;Юмаев Антон Альбертович;Южноуральск г;Космонавтов ул;21;   ;15;    ;20АМ330487;"53,9";"2156,8";"200,6";1;Ноябрь 2019 г.;Отопление и ГВС;Компонент на т/носитель с ПС;куб.м;0;"4,24";6;0;0;0;0
200940;Юмаев Антон Альбертович;Южноуральск г;Космонавтов ул;21;   ;15;    ;20АМ330487;"53,9";"2156,8";"200,6";1;Ноябрь 2019 г.;Отопление и ГВС;Отопление (Гкал);ГКал;"1321,85";"0,0324";"1,10166";"1456,23";0;0;0
200940;Юмаев Антон Альбертович;Южноуральск г;Космонавтов ул;21;   ;15;    ;20АМ330487;"53,9";"2156,8";"200,6";1;Ноябрь 2019 г.;Отопление и ГВС;Компонент на теплоэнергию;ГКал;"1321,85";;"0,41568";"549,47";0;0;0
